{
      "chart": {
          "backgroundColor": null
      },

      "title": {
        "text": "Solar Employment Growth by Sector, 2010-2016"
      },

      "subtitle": {
        "text": "Source: thesolarfoundation.com"
      },
      
      "backgroundColor": null,

      "yAxis": {
        "title": {
          "text": "Number of Employees"
        }
      },
      "legend": {
        "layout": "vertical",
        "align": "right",
        "verticalAlign": "middle"
      },

      "plotOptions": {
        "series": {
          "label": {
            "connectorAllowed": false
          }
        }
      },

      "series": [],

      "responsive": {
        "rules": [{
          "condition": {
            "maxWidth": 500
          },
          "chartOptions": {
            "legend": {
              "layout": "horizontal",
              "align": "center",
              "verticalAlign": "bottom"
            }
          }
        }]
      }

    }